…
``` r
homicide_raw = 
  read_csv( "./data/homicide_data.csv") %>% 
    mutate (
    city_state = str_c(city, ", ", state),
    result = ifelse(disposition != "Closed by arrest", "unsolved", "solved")) %>% 
    filter(!(city_state %in% c("Tulsa, AL", "Dallas, TX", "Phoenix, AZ", "Kansas City, MO"))) %>% 
    filter(victim_race %in% c("White", "Black")) %>% 
    filter(!(victim_age %in% c("Unknown"))) %>% 
    mutate (victim_age = as.numeric(victim_age))

homicide_raw 
```

    ## # A tibble: 39,403 × 14
    ##    uid   repor…¹ victi…² victi…³ victi…⁴ victi…⁵ victi…⁶ city  state   lat   lon
    ##    <chr>   <dbl> <chr>   <chr>   <chr>     <dbl> <chr>   <chr> <chr> <dbl> <dbl>
    ##  1 Alb-…  2.01e7 SATTER… VIVIANA White        15 Female  Albu… NM     35.1 -107.
    ##  2 Alb-…  2.01e7 MULA    VIVIAN  White        72 Female  Albu… NM     35.1 -107.
    ##  3 Alb-…  2.01e7 BOOK    GERALD… White        91 Female  Albu… NM     35.2 -107.
    ##  4 Alb-…  2.01e7 MARTIN… GUSTAVO White        56 Male    Albu… NM     35.1 -107.
    ##  5 Alb-…  2.01e7 GRAY    STEFAN… White        43 Female  Albu… NM     35.1 -107.
    ##  6 Alb-…  2.01e7 DAVID   LARRY   White        52 Male    Albu… NM     NA     NA 
    ##  7 Alb-…  2.01e7 BRITO   ELIZAB… White        22 Female  Albu… NM     35.1 -107.
    ##  8 Alb-…  2.01e7 KING    TEVION  Black        15 Male    Albu… NM     35.1 -107.
    ##  9 Alb-…  2.01e7 BOYKIN  CEDRIC  Black        25 Male    Albu… NM     35.1 -107.
    ## 10 Alb-…  2.01e7 BARRAG… MIGUEL  White        20 Male    Albu… NM     35.1 -107.
    ## # … with 39,393 more rows, 3 more variables: disposition <chr>,
    ## #   city_state <chr>, result <chr>, and abbreviated variable names
    ## #   ¹​reported_date, ²​victim_last, ³​victim_first, ⁴​victim_race, ⁵​victim_age,
    ## #   ⁶​victim_sex
…
homicide_all_cities
```

    ## # A tibble: 47 × 4
    ##    city_state      odds_ratio lower_bound upper_bound
    ##    <chr>                <dbl>       <dbl>       <dbl>
    ##  1 Albuquerque, NM      0.566       0.266        1.20
    ##  2 Atlanta, GA          1.00        0.683        1.46
    ##  3 Baltimore, MD        2.35        1.79         3.08
    ##  4 Baton Rouge, LA      2.62        1.44         4.78
    ##  5 Birmingham, AL       1.15        0.759        1.74
    ##  6 Boston, MA           1.48        0.784        2.81
    ##  7 Buffalo, NY          1.92        1.07         3.45
    ##  8 Charlotte, NC        1.13        0.713        1.80
    ##  9 Chicago, IL          2.44        2.00         2.98
    ## 10 Cincinnati, OH       2.50        1.48         4.24
    ## # … with 37 more rows
…
